{
    "SMART360_PATH": "/SMART360-simulator",
    "VIDEOS_PATH": "config/synthetic/video_manifests",
    "USERS_PATH": "config/synthetic/head_motion_traces",
    "NETWORKS_PATH": "config/synthetic/network_traces",
    "OUTPUT_PATH": "output",
    "ABRS": ["baseline"],
    "PREDICTORS": ["dvms", "static_pred", "no_pred"],
    "KS": [1],
    "B_MINS": [1],
    "B_MAXS": [10],
    "VIDEOS": ["0", "1", "2"],
    "USERS": "all",
    "NETWORKS": [
      "trace_4mbps.json",
      "trace_4mbps_stall.json"
    ],
    "TILINGS": ["12x6"],
    "SEGMENTS": [1000],
    "DELTA_DLS": [1000],
    "RS": [15],
    "EWMA_ALPHAS": ["1.2"]
  }