{
  "SMART360_PATH": "/SMART360-simulator",
  "VIDEOS_PATH": "config/synthetic/video_manifests",
  "USERS_PATH": "config/synthetic/head_motion_traces",
  "NETWORKS_PATH": "config/synthetic/network_traces",
  "OUTPUT_PATH": "output",
  "ABRS": ["baseline","enhanced_prefetch"],
  "PREDICTORS": ["dvms","static_pred"],
  "KS": [2],
  "B_MINS": [1,2,3,4,5],
  "B_MAXS": [10],
  "VIDEOS": ["0", "1", "2"],
  "USERS": "all",
  "NETWORKS": [
    "trace_4mbps.json",
    "trace_4mbps_stall.json",
    "trace_8mbps.json",
    "trace_8mbps_stall.json"
  ],
  "TILINGS": ["12x6"],
  "SEGMENTS": [1000],
  "DELTA_DLS": [1000],
  "RS": [15],
  "EWMA_ALPHAS": ["1.2"]
}